DAY_OF_THE_WEEK,MONTH,SEASON,ACTIVITY_steps,ACTIVITY_distance,ACTIVITY_hr_average,ACTIVITY_hr_min,ACTIVITY_hr_max,SLEEP_totalsleeptime,SLEEP_hr_average,SLEEP_hr_min,SLEEP_hr_max
1,7,0,9481,6869,82,62,157,31560,61,52,81
2,7,0,4341,2954,60,53,91,31680,64,52,91
3,7,0,14418,10666,62,54,94,32340,74,61,81
4,7,0,10151,7085,68,58,96,34800,72,58,96
5,7,0,4497,3128,67,56,109,28260,70,58,98
6,7,0,4060,2887,90,69,136,32460,62,54,76
0,7,0,7133,5202,90,69,156,29760,66,54,88
1,7,0,3765,2847,80,62,119,25740,67,56,94
2,8,0,4495,3487,87,62,167,27000,69,57,95
3,8,0,2994,2118,60,54,84,31440,67,55,100
4,8,0,10355,7589,65,57,92,30120,66,53,92
5,8,0,2884,2000,84,63,117,34560,68,58,99
6,8,0,4210,2989,87,58,118,27420,65,56,100
0,8,0,12065,8815,63,59,83,25140,64,56,84
1,8,0,3806,2653,85,61,137,24180,70,58,96
2,8,0,3094,2228,84,51,129,27360,64,56,78
3,8,0,5963,4237,92,68,123,25380,70,57,105
4,8,0,3593,2542,80,48,118,29280,70,58,86
5,8,0,6083,4186,84,46,117,34740,71,59,107
6,8,0,7595,5763,94,70,162,32520,63,53,87
0,8,0,2691,1923,57,51,63,24120,62,51,94
1,8,0,4235,2972,87,67,126,28140,60,52,103
2,8,0,3827,2667,59,54,65,28080,64,57,87
3,8,0,2143,1496,81,59,124,31440,61,52,84
4,8,0,3973,2791,57,51,64,27060,64,56,75
5,8,0,4337,2993,65,62,74,27720,61,54,92
6,8,0,4647,3269,58,51,71,33540,68,60,81
0,8,0,8115,5984,80,44,182,26880,65,53,96
1,8,0,3549,2493,85,58,124,27480,62,52,94
2,8,1,6915,5154,65,56,93,29100,77,67,85
3,8,1,1807,1284,83,65,139,30900,67,54,85
4,8,1,9548,6834,91,64,143,30120,68,54,102
5,8,1,4884,3382,68,59,105,33000,70,59,105
6,8,1,11661,8875,64,54,86,33120,67,61,81
0,8,1,5412,3843,82,55,121,27300,66,55,95
1,8,1,2999,2081,61,52,91,27720,71,61,91
2,8,1,2984,2123,82,67,123,29160,68,61,92
3,8,1,2097,1469,80,68,126,27960,63,53,93
4,9,1,10946,7851,64,51,91,29640,67,52,90
5,9,1,5486,3815,91,68,120,32759,75,63,94
6,9,1,5586,4095,91,68,141,32340,72,59,83
0,9,1,12670,9105,86,43,154,27540,67,57,92
1,9,1,4070,2884,82,63,128,26880,67,55,89
2,9,1,2280,1614,80,53,113,28560,66,55,88
3,9,1,3794,2806,80,43,108,27060,65,57,100
4,9,1,2462,1762,81,52,138,25860,66,54,84
5,9,1,3274,2292,84,68,125,33060,69,56,94
6,9,1,5135,3663,92,66,136,29880,66,55,96
0,9,1,2940,2076,79,39,110,25560,65,56,88
1,9,1,3688,2599,82,46,131,24960,63,54,91
2,9,1,2981,2096,82,41,125,28260,63,56,91
3,9,1,3015,2137,87,69,117,28320,68,55,88
4,9,1,3959,3131,87,64,180,28860,66,54,86
5,9,1,7083,4904,94,73,128,33120,72,58,100
6,9,1,11083,8737,97,72,172,28920,67,56,85
0,9,1,7455,6176,89,46,155,22620,68,56,104
1,9,1,3081,2176,90,66,144,27900,71,57,99
2,9,1,3747,2620,91,64,130,29160,73,59,97
3,9,1,5770,3956,91,46,126,30120,77,71,85
4,9,1,5760,4027,91,68,129,23040,69,58,86
5,9,1,3208,2269,70,53,95,21960,66,57,80
6,9,1,3775,2663,91,67,134,32400,64,54,98
0,9,1,4897,3416,89,66,139,30360,66,58,81
1,9,1,3045,2079,83,42,120,20340,66,54,94
2,9,1,4694,3303,83,66,130,32940,65,57,89
3,9,1,5362,3944,65,58,101,23820,70,58,101
4,9,1,3085,2157,64,59,81,27900,71,63,83
5,9,1,5119,3617,65,58,78,30420,68,58,79
6,9,1,5937,4216,94,75,128,35220,67,54,98
0,10,1,3659,2551,72,54,104,21180,74,62,92
1,10,1,3675,2588,57,49,93,29280,61,53,71
2,10,1,4676,3353,79,42,128,24900,62,53,88
3,10,1,3674,2557,80,47,126,29580,68,52,91
4,10,1,3864,2693,77,59,110,35100,62,52,91
5,10,1,7300,5456,65,51,94,26040,58,51,70
6,10,1,4759,3351,82,55,108,35940,61,51,101
0,10,1,4018,2822,80,58,122,25140,61,52,97
1,10,1,4309,3019,77,39,108,23640,61,53,97
2,10,1,3175,2240,78,62,135,23940,61,55,80
3,10,1,2963,2086,82,61,133,26100,64,54,87
4,10,1,11416,7878,86,56,126,24540,61,53,87
5,10,1,13975,9412,88,69,126,27720,68,56,95
6,10,1,11167,8491,81,44,152,28020,63,53,83
0,10,1,3803,2787,81,57,136,25020,60,52,103
1,10,1,3986,2890,86,65,127,28320,63,53,106
2,10,1,3268,2308,85,62,121,24000,64,58,92
3,10,1,4178,2934,87,42,115,23580,64,56,77
4,10,1,9130,6571,81,42,151,25920,68,55,86
5,10,1,4422,3069,84,66,109,34740,66,56,91
6,10,1,4426,3116,88,65,118,33540,64,52,97
0,10,1,3449,2427,81,53,121,27300,67,52,94
1,10,1,3882,2751,62,56,71,25380,65,56,74
2,10,1,5086,3567,62,52,89,27180,64,52,89
3,10,1,2109,1493,59,54,71,29520,62,54,92
4,10,1,4045,2865,82,63,112,26820,65,51,105
5,10,1,4773,3395,90,69,125,35820,67,55,85
6,10,1,3554,2500,85,37,111,28200,64,55,86
0,10,1,3866,2723,85,35,140,27300,63,54,78
1,10,1,2999,2096,82,41,131,31140,65,55,93
2,11,1,4760,3358,79,63,125,27360,65,54,94
3,11,1,2965,2101,78,59,126,25980,64,53,90
4,11,1,6961,4945,85,47,140,25860,61,53,85
5,11,1,6554,4628,91,51,145,40680,66,54,82
6,11,1,7931,5608,98,75,149,28620,64,54,90
0,11,1,8437,6015,91,65,145,26820,65,55,97
1,11,1,4918,3504,89,70,153,27660,63,55,85
2,11,1,7819,5633,86,42,122,24240,68,58,94
3,11,1,4526,3260,68,60,127,28500,70,60,127
4,11,1,9795,6983,101,49,163,27000,65,56,90
5,11,1,6075,4320,62,59,70,33120,71,59,95
6,11,1,6168,4367,75,57,99,25440,74,57,98
0,11,1,7146,5104,83,46,134,24780,70,59,90
1,11,1,6319,4511,66,57,102,27720,68,57,102
2,11,1,3309,2367,83,54,134,26160,68,60,96
3,11,1,4250,3082,78,58,115,24960,68,58,97
4,11,1,3077,2091,62,56,73,29340,64,56,92
5,11,1,6298,4401,94,71,124,31380,68,58,92
6,11,1,15217,11295,96,71,156,25680,78,65,97
0,11,1,7300,5222,91,37,126,28140,71,60,100
1,11,2,3300,2363,82,59,127,23460,73,60,92
2,11,2,8368,5895,90,67,173,30360,65,56,89
3,11,2,4831,3368,84,44,132,24300,66,40,86
4,11,2,5768,4012,89,54,139,33480,70,59,101
5,11,2,2598,1829,86,60,113,25800,72,60,87
6,11,2,3717,2613,84,50,130,24840,65,56,80
0,11,2,2712,1855,102,86,133,31260,88,77,115
1,11,2,1794,1229,91,43,124,38820,84,70,110
2,11,2,2414,1634,86,39,114,22740,72,68,94
3,11,2,3966,2730,90,72,117,28740,67,59,89
4,11,2,4464,3144,78,60,135,15660,77,66,112
5,0,2,7487,5362,87,66,137,32040,65,57,87
6,0,2,4787,3378,85,58,123,39780,61,55,89
0,0,2,1863,1290,83,67,100,30060,60,54,90
1,0,2,3202,2251,58,51,64,30120,60,51,73
2,0,2,3775,2667,82,68,123,26460,62,51,77
3,0,2,2489,1734,78,66,112,30900,60,50,73
4,0,2,3104,2226,58,53,66,35400,62,53,80
5,0,2,5129,3607,92,49,119,34140,69,54,100
6,0,2,4984,3494,96,69,151,34920,68,55,84
0,0,2,6265,4413,98,65,143,28740,66,53,104
1,0,2,3705,2588,85,49,116,27060,68,57,89
2,0,2,3106,2190,79,45,106,26520,71,56,98
3,0,2,3990,2786,85,48,133,27120,71,58,123
4,0,2,5413,3857,93,39,122,26460,66,58,85
5,0,2,11767,8299,105,55,185,23880,83,72,97
6,0,2,14592,10755,98,70,147,29640,86,67,101
0,0,2,5630,4019,85,66,122,21540,75,59,93
1,0,2,4808,3430,91,75,115,25680,73,61,94
2,0,2,2914,2070,81,55,105,25140,75,59,98
3,0,2,4460,3136,88,65,120,28980,70,55,100
4,0,2,4097,2167,85,49,175,22260,71,60,93
5,0,2,7881,5532,92,67,146,30960,73,60,102
6,0,2,5592,4057,88,67,126,27900,70,55,98
0,0,2,10240,7205,85,60,132,23880,68,58,82
1,0,2,3670,2584,63,57,99,20820,65,57,99
2,0,2,3440,2429,80,60,112,27540,70,59,82
3,0,2,3012,2130,80,65,112,19560,61,54,72
4,0,2,3272,2344,82,39,107,30420,65,57,88
5,0,2,10168,7069,92,60,122,35880,70,55,95
6,0,2,8973,6833,93,71,145,32040,69,57,97
0,0,2,3712,2616,90,57,131,28680,70,59,105
1,1,2,4436,3147,66,59,93,27000,70,59,135
2,1,2,3963,2802,83,64,136,29460,70,56,91
3,1,2,3425,2439,89,51,146,25620,66,56,80
4,1,2,3469,2425,91,63,131,28920,68,58,96
5,1,2,12935,9206,96,67,161,32700,73,60,108
6,1,2,3238,2248,88,67,111,34140,77,62,107
0,1,2,2573,1825,86,64,117,33360,74,61,99
1,1,2,5099,3677,86,66,129,33420,70,57,97
2,1,2,3220,2539,86,52,158,25500,69,56,97
3,1,2,5816,5090,87,47,165,27060,71,60,85
4,1,2,4679,3291,86,47,137,30000,73,61,98
5,1,2,6191,4478,88,72,124,26820,70,58,94
6,1,2,4970,3513,87,66,130,31380,69,56,87
0,1,2,3168,2273,80,66,122,27060,65,53,101
1,1,2,3842,2710,79,40,112,27300,65,54,94
2,1,2,5157,3674,82,65,114,22020,63,55,94
3,1,2,4062,2863,61,57,92,29160,63,57,92
4,1,2,5475,3772,88,71,121,32400,69,58,95
5,1,2,11225,8098,88,72,121,26100,70,60,87
6,1,2,10938,7956,93,69,129,28740,68,59,100
0,1,2,5362,3896,83,64,139,19020,70,59,87
1,1,2,6248,4366,85,57,133,28020,68,56,92
2,1,2,4167,2915,83,43,113,28380,64,54,91
3,1,2,5600,3868,86,64,115,31020,68,58,92
4,1,2,6272,4316,86,53,146,30060,68,56,87
5,1,2,5419,3750,90,70,128,27660,69,59,94
6,1,2,3761,2666,88,52,128,32520,66,55,90
0,1,2,7448,5315,85,57,135,22800,69,57,90
1,2,2,3658,2598,85,72,122,29460,65,53,92
2,2,2,3170,2271,83,59,119,25800,67,58,87
3,2,2,3681,2590,83,63,122,27240,67,53,94
4,2,2,5291,3729,89,46,216,27420,68,59,97
5,2,2,3932,2820,68,53,98,34740,73,53,98
6,2,2,4910,3484,88,69,122,31740,70,59,103
0,2,2,9742,6960,84,68,123,24480,74,57,105
1,2,2,4970,3475,87,66,125,28560,66,54,80
2,2,2,4477,3155,89,56,132,27360,68,59,86
3,2,2,5441,3840,80,37,118,24720,69,58,96
4,2,2,4353,3044,85,66,108,24720,69,56,97
5,2,2,5603,3940,89,44,117,37860,66,56,86
6,2,2,3538,2461,65,58,88,27060,69,58,88
0,2,2,2800,1993,76,53,105,28680,66,54,99
1,2,2,4777,3325,77,42,112,24660,60,52,82
2,2,2,3370,2360,83,60,112,26760,63,54,97
3,2,2,1327,920,76,44,117,28740,63,57,86
4,2,2,2196,1516,80,65,126,28500,61,54,79
5,2,2,3792,2630,86,42,138,36720,69,54,98
6,2,3,4269,2974,90,67,119,27720,68,58,85
0,2,3,3386,2319,84,65,153,26160,69,58,83
1,2,3,3126,2139,81,40,109,26280,68,56,91
2,2,3,3324,2315,82,64,130,27000,73,60,85
3,2,3,4555,3089,82,57,129,28500,68,62,81
4,2,3,2953,2220,82,49,114,29880,68,58,89
5,2,3,4918,3445,89,46,119,33540,67,57,99
6,2,3,3968,2802,84,65,114,29880,71,60,106
0,2,3,3455,2561,82,49,120,23580,72,61,107
1,2,3,6275,4719,92,49,126,29520,72,60,100
2,2,3,3836,2694,85,69,121,24360,70,61,93
3,2,3,5081,3645,83,40,208,21540,72,61,85
4,3,3,5555,3961,88,58,123,25320,70,58,99
5,3,3,7414,5203,91,70,153,37260,69,59,95
6,3,3,2834,1986,83,64,113,32460,67,56,108
0,3,3,4790,3445,86,69,137,24180,65,57,93
1,3,3,3393,2383,83,65,112,30960,64,55,96
2,3,3,4220,2970,82,49,119,28140,65,57,85
3,3,3,3220,2286,80,49,122,30240,66,56,103
4,3,3,5884,4337,85,67,118,25800,62,55,78
5,3,3,5446,3921,84,41,142,32220,68,56,86
6,3,3,4759,3304,83,53,116,27180,74,61,104
0,3,3,3738,2615,87,49,130,24360,68,59,93
1,3,3,3400,2364,87,70,130,28980,65,56,97
2,3,3,6826,4908,84,60,116,20820,68,60,83
3,3,3,8212,5948,95,68,151,25756,70,59,90
4,3,3,4297,2992,87,65,128,26262,70,59,91
5,3,3,3056,2099,88,67,138,29340,81,61,117
6,3,3,5398,3835,86,74,111,28320,69,57,83
0,3,3,5207,3667,87,72,128,28200,77,63,106
1,3,3,2883,2002,89,73,114,28680,73,59,99
2,3,3,2401,1654,87,70,125,31800,72,60,89
3,3,3,4336,2999,88,76,103,33540,73,61,106
4,3,3,3904,2721,85,52,151,28680,71,58,88
5,3,3,6588,4672,89,65,138,26340,74,61,101
6,3,3,5299,3689,87,69,119,26640,71,59,86
0,3,3,7793,5413,99,75,143,25920,75,56,105
1,3,3,7657,5483,93,72,147,16860,75,69,95
2,3,3,4599,3197,89,51,125,32400,77,64,105
3,3,3,4499,3425,81,44,113,26520,80,59,109
4,3,3,3891,2741,87,42,118,31620,71,58,96
5,3,3,4658,3226,91,67,119,23880,70,56,97
6,4,3,3333,2316,90,67,123,34620,73,57,92
0,4,3,3444,2424,78,62,116,24720,65,51,85
1,4,3,3657,2548,83,65,121,28440,59,53,96
2,4,3,2904,2043,81,53,111,28560,65,54,99
3,4,3,4149,3075,86,59,138,22620,68,60,90
4,4,3,2689,1845,82,43,109,22800,76,60,89
5,4,3,2493,1727,89,45,130,38940,69,58,101
6,4,3,3190,2220,86,58,119,27480,68,57,84
0,4,3,3581,2492,81,45,107,25681,68,58,111
1,4,3,2644,1821,98,76,130,27180,72,61,95
2,4,3,2959,2043,95,66,124,28620,68,57,91
3,4,3,2230,1545,86,47,112,25800,72,59,101
4,4,3,2019,1395,83,43,116,13740,70,61,80
5,4,3,4628,3244,91,68,116,37320,72,58,93
6,4,3,4546,3199,87,52,127,27540,69,58,90
0,4,3,2008,1410,80,62,112,29160,65,54,88
1,4,3,3247,2258,83,67,111,29520,65,54,95
2,4,3,3752,2631,86,48,113,29400,64,54,78
3,4,3,3079,2141,83,68,116,24780,63,55,84
4,4,3,5253,3652,80,45,119,10680,67,59,85
5,4,3,5161,3581,92,61,120,29520,71,61,91
6,4,3,5564,3891,69,54,114,24180,69,54,83
0,4,3,2735,1897,78,59,114,28260,64,50,83
1,4,3,2670,1854,58,53,90,31080,61,53,90
2,4,3,3842,2646,62,56,98,28800,64,56,98
3,4,3,9382,6324,65,56,91,25800,66,56,91
4,4,3,8081,5668,83,61,113,29760,65,54,94
5,4,3,4893,3401,61,52,97,31140,65,52,97
6,4,3,4496,3184,88,67,140,31320,67,54,99
0,4,3,5113,3580,82,63,115,23880,67,36,94
1,4,3,4392,3083,59,54,67,27840,66,54,93
2,5,3,2214,1553,89,69,124,23760,66,58,93
3,5,3,2347,1626,88,61,111,31380,66,56,105
4,5,3,3319,2318,85,46,129,24720,66,52,91
5,5,3,4559,3167,95,70,130,32040,72,57,111
6,5,3,2536,1753,89,55,126,27720,74,58,97
0,5,3,2832,2001,88,46,125,31020,69,56,102
1,5,3,4650,3260,83,45,124,24000,69,58,90
2,5,3,3167,2235,84,47,110,25920,63,56,89
3,5,3,4476,3140,96,50,134,27000,66,60,78
4,5,3,2696,1895,95,46,133,26040,70,55,107
5,5,3,6370,4883,104,52,199,28980,73,66,97
6,5,3,5651,4191,104,83,172,29400,79,64,111
0,5,3,3050,2128,85,68,113,18840,79,73,87
1,5,3,3336,2329,86,65,124,27420,67,55,87
2,5,3,3909,2716,84,68,120,23820,71,56,95
3,5,3,3849,2875,82,62,128,25560,66,54,99
4,5,3,5419,3940,87,43,115,25860,66,54,103
5,5,3,5368,3755,62,56,82,29520,68,56,90
6,5,3,6506,5004,89,58,114,28620,71,56,89
0,5,3,3878,2683,83,52,118,19080,70,58,94
1,5,0,4736,3353,86,63,118,25980,64,54,91
2,5,0,4270,3070,88,72,122,25560,71,55,98
3,5,0,5238,3619,86,51,115,24780,63,53,97
4,5,0,5785,3994,77,43,120,11580,72,59,83
5,5,0,4403,3045,87,62,122,28080,66,54,83
6,5,0,2543,1789,86,68,112,31920,63,54,94
0,5,0,2685,1899,75,40,107,26640,65,44,82
1,5,0,3399,2382,78,49,113,24300,63,53,78
2,5,0,2292,1603,80,42,116,29700,63,51,80
3,5,0,3078,2136,80,56,112,27720,60,51,75
4,6,0,3610,2570,82,45,115,26400,64,52,78
5,6,0,5656,3934,98,77,203,30660,70,58,89
6,6,0,2591,1817,91,75,121,32340,72,60,91
0,6,0,3143,2181,90,68,123,28260,65,56,100
1,6,0,7114,4975,91,49,143,29460,68,58,92
2,6,0,7150,4972,93,73,134,29640,73,59,96
3,6,0,6775,4801,84,65,128,21180,73,59,93
4,6,0,4141,2984,79,42,114,27420,68,56,96
5,6,0,4897,3441,91,52,121,26220,68,55,93
6,6,0,4926,3473,94,58,158,27120,68,57,124
0,6,0,4033,2813,68,58,83,30540,73,58,99
1,6,0,4756,3312,89,65,119,29040,69,53,90
2,6,0,4389,3127,81,44,119,27600,70,59,93
3,6,0,4411,3073,90,58,136,21420,61,53,89
4,6,0,3753,2582,91,66,129,32160,65,54,85
5,6,0,4909,3661,95,63,172,33240,68,56,96
6,6,0,11577,8082,100,72,151,32400,64,52,92
0,6,0,5630,3884,76,57,111,22980,66,56,92
1,6,0,6065,4241,79,50,123,25140,59,50,78
2,6,0,6344,4389,87,45,137,30360,65,55,91
3,6,0,4145,3067,81,48,131,28200,69,54,93
4,6,0,5383,3702,86,45,140,29280,62,52,85
5,6,0,17675,11995,85,58,142,30600,68,54,94
6,6,0,16448,11689,105,52,166,28920,71,59,97
0,6,0,6667,4660,86,62,129,27120,75,59,101
1,6,0,4878,3491,89,54,115,27960,72,57,99
2,6,0,6107,4258,89,71,132,25260,70,57,91
3,6,0,6135,4416,89,47,127,23940,75,56,93
4,6,0,3440,2356,83,61,128,22980,72,60,95
5,6,0,3174,2216,90,44,136,35100,66,55,94
6,6,0,4553,3139,92,73,153,30180,72,58,92
0,7,0,5442,3705,63,57,95,30420,74,61,85
1,7,0,5670,3902,92,63,128,26820,65,59,93
2,7,0,3363,2325,86,70,125,30900,69,52,94
3,7,0,6867,4747,89,52,123,30300,67,55,93
4,7,0,4985,3363,82,62,113,25080,67,59,103
5,7,0,4328,3016,87,69,120,24120,70,59,87
6,7,0,4598,3146,90,62,123,31380,63,54,79
0,7,0,3710,2624,80,53,119,29880,81,75,96
1,7,0,5901,4135,85,50,131,21840,61,53,90
2,7,0,4602,3208,88,73,123,30180,64,57,77
3,7,0,8556,5759,88,69,116,30840,68,54,97
4,7,0,8466,5805,83,50,128,26097,68,57,88
5,7,0,2748,1963,89,67,129,29520,59,53,73
6,7,0,3216,2190,85,44,112,35580,62,52,90
0,7,0,1250,885,86,60,112,34680,65,54,85
1,7,0,4706,3253,86,54,125,33240,59,51,92
2,7,0,6379,4430,89,61,121,33060,59,51,85
3,7,0,1929,1357,89,47,117,32580,61,43,95
4,7,0,6712,4549,88,63,115,34500,62,51,88
5,7,0,2439,1731,93,63,131,34560,56,49,79
6,7,0,7720,5678,94,64,129,29640,65,55,152
0,7,0,9369,6458,86,69,124,24360,64,54,97
1,7,0,3859,2701,82,45,108,23880,61,53,87